<?xml version="1.0" encoding="UTF-8" standalone="no"?>
<svg
   xmlns:dc="http://purl.org/dc/elements/1.1/"
   xmlns:cc="http://creativecommons.org/ns#"
   xmlns:rdf="http://www.w3.org/1999/02/22-rdf-syntax-ns#"
   xmlns:svg="http://www.w3.org/2000/svg"
   xmlns="http://www.w3.org/2000/svg"
   xmlns:sodipodi="http://sodipodi.sourceforge.net/DTD/sodipodi-0.dtd"
   xmlns:inkscape="http://www.inkscape.org/namespaces/inkscape"
   id="Calque_1"
   data-name="Calque 1"
   viewBox="0 0 799.99999 400.00001"
   version="1.1"
   sodipodi:docname="whale.svg"
   inkscape:version="0.92.2 (5c3e80d, 2017-08-06)"
   width="800"
   height="400"
   inkscape:export-filename="/home/luc/tmp/wemawema/img/whale.png"
   inkscape:export-xdpi="96"
   inkscape:export-ydpi="96">
  <metadata
     id="metadata13">
    <rdf:RDF>
      <cc:Work
         rdf:about="">
        <dc:format>image/svg+xml</dc:format>
        <dc:type
           rdf:resource="http://purl.org/dc/dcmitype/StillImage" />
        <dc:title>Plan de travail 1</dc:title>
      </cc:Work>
    </rdf:RDF>
  </metadata>
  <sodipodi:namedview
     pagecolor="#ffffff"
     bordercolor="#666666"
     borderopacity="1"
     objecttolerance="10"
     gridtolerance="10"
     guidetolerance="10"
     inkscape:pageopacity="0"
     inkscape:pageshadow="2"
     inkscape:window-width="1918"
     inkscape:window-height="1046"
     id="namedview11"
     showgrid="false"
     inkscape:zoom="0.93072059"
     inkscape:cx="290.74817"
     inkscape:cy="91.647382"
     inkscape:window-x="1680"
     inkscape:window-y="48"
     inkscape:window-maximized="0"
     inkscape:current-layer="Calque_1"
     fit-margin-top="0"
     fit-margin-left="0"
     fit-margin-right="0"
     fit-margin-bottom="0" />
  <defs
     id="defs4">
    <style
       id="style2">.cls-1{fill:#444;}</style>
  </defs>
  <title
     id="title6">Plan de travail 1</title>
  <path
     class="cls-1"
     d="m 669.40536,136.38641 a 57.92,57.92 0 0 0 48.65,57.14 90.52,90.52 0 0 1 -159.73,-43.68 114.25,114.25 0 0 0 -194.26,-94.240003 l 80.78,80.780003 h -115.52 a 203.38,203.38 0 0 0 33.15,111.62 40.78,40.78 0 0 0 -4.5,61.92 l 30.1,-30.1 a 204.74,204.74 0 0 0 79.12,50 40.87,40.87 0 0 0 40.44,48.05 v -38.69 a 206.16,206.16 0 0 0 26.23,1.73 c 92.87,0 171.23,-61.92 196.19,-146.71 a 57.91,57.91 0 0 0 55.27,-57.82 z m -182.49,-36.880003 a 10.06,10.06 0 1 1 10.06,-10.06 10.06,10.06 0 0 1 -10.06,10.06 z"
     id="path8"
     inkscape:connector-curvature="0"
     style="fill:#444444" />
</svg>
